<svg width="243.859" height="243.859" xmlns="http://www.w3.org/2000/svg" xml:space="preserve" enable-background="new 0 0 243.859 243.859" version="1.1">
 <g>
  <circle id="svg_1" r="115.43" cy="121.93" cx="121.93" stroke-miterlimit="10" stroke-width="13" stroke="#FFFFFF"/>
  <path id="svg_26" d="m56.26285,123.79465l65.66666,-96l65.66666,96l-131.33332,0z" stroke="null" fill="#FFFFFF"/>
  <line stroke="null" id="svg_27" y2="166.59611" x2="207.92947" y1="129.26278" x1="33.92948" fill="none"/>
  <rect id="svg_28" height="1" width="176" y="121.4295" x="33.9295" stroke-width="5" stroke="#FFFFFF"/>
  <path stroke="null" id="svg_29" d="m64.9295,119.12798l56.99999,-85.33333l56.99999,85.33333l-113.99999,0z" fill="#000000"/>
  <path stroke="null" id="svg_30" d="m72.26284,115.79465l49.66667,-74.66666l49.66666,74.66666l-99.33332,0z" fill="#ffffff"/>
  <g stroke="null" id="svg_33">
   <path stroke="null" id="svg_31" d="m61.26284,128.46131l60.66666,83.99999l60.66666,-83.99999l-121.33332,0z" fill="#FFFFFF"/>
   <path stroke="null" id="svg_32" d="m69.26959,132.54465l52.6599,74.66665l52.65989,-74.66665l-105.31979,0z" fill="#000000"/>
  </g>
 </g>
</svg>